<?xml version="1.0" encoding="iso-8859-1"?>
<!-- Generator: Adobe Illustrator 19.0.0, SVG Export Plug-In . SVG Version: 6.00 Build 0)  -->
<svg version="1.1" id="Layer_1" xmlns="http://www.w3.org/2000/svg" xmlns:xlink="http://www.w3.org/1999/xlink" x="0px" y="0px"
	 viewBox="0 0 512 512" style="enable-background:new 0 0 512 512;" xml:space="preserve">
<g>
	<g>
		<g>
			<path d="M255.99,102.4c28.277,0,51.2-22.923,51.2-51.2S284.267,0,255.99,0s-51.2,22.923-51.2,51.2S227.713,102.4,255.99,102.4z
				 M255.99,17.067c18.851,0,34.133,15.282,34.133,34.133s-15.282,34.133-34.133,34.133c-18.851,0-34.133-15.282-34.133-34.133
				S237.139,17.067,255.99,17.067z"/>
			<path d="M411.553,235.349l-53.163-94.123c-7.527-13.392-21.673-21.703-37.035-21.76H190.625
				c-15.362,0.057-29.507,8.368-37.035,21.76l-52.992,93.867c-6.956,12.309-2.616,27.926,9.694,34.882
				c0.011,0.006,0.023,0.013,0.034,0.019c12.284,6.847,27.791,2.504,34.731-9.728l47.787-89.6h15.531l-79.531,166.997
				c-2.027,4.255-0.22,9.347,4.035,11.374c1.139,0.542,2.384,0.826,3.645,0.829h59.733V486.4c0,14.138,11.462,25.6,25.6,25.6
				s25.6-11.461,25.6-25.6V349.867h17.067V486.4c0,14.138,11.462,25.6,25.6,25.6s25.6-11.461,25.6-25.6V349.867h59.733
				c4.713-0.013,8.523-3.845,8.509-8.557c-0.004-1.261-0.287-2.506-0.829-3.645l-79.531-166.997h15.531l47.787,89.771
				c7.049,12.256,22.699,16.476,34.955,9.427C413.964,262.913,418.264,247.569,411.553,235.349z M397.473,250.197h-0.171
				c-1.289,4.533-6.008,7.163-10.542,5.875c-2.089-0.594-3.874-1.963-4.989-3.827l-50.091-93.867
				c-1.394-2.849-4.254-4.689-7.424-4.779h-34.133c-4.713,0.013-8.523,3.845-8.509,8.557c0.004,1.261,0.287,2.506,0.829,3.645
				L361.974,332.8H307.19c-4.713,0-8.533,3.821-8.533,8.533V486.4c0,4.713-3.82,8.533-8.533,8.533s-8.533-3.82-8.533-8.533V341.333
				c0-4.713-3.821-8.533-8.533-8.533h-34.133c-4.713,0-8.533,3.821-8.533,8.533V486.4c0,4.713-3.82,8.533-8.533,8.533
				s-8.533-3.82-8.533-8.533V341.333c0-4.713-3.821-8.533-8.533-8.533h-54.784l79.531-166.997c2.026-4.255,0.22-9.347-4.035-11.373
				c-1.139-0.542-2.384-0.826-3.645-0.829h-34.133c-3.145,0.008-6.031,1.746-7.509,4.523l-50.005,93.867
				c-2.356,4.1-7.591,5.514-11.691,3.157c-4.1-2.356-5.514-7.591-3.157-11.691l52.992-93.867
				c4.525-8.051,13.036-13.04,22.272-13.056h130.731c9.236,0.016,17.747,5.005,22.272,13.056l52.992,93.867
				C397.825,245.488,398.134,247.929,397.473,250.197z"/>
		</g>
	</g>
</g>
<g>
</g>
<g>
</g>
<g>
</g>
<g>
</g>
<g>
</g>
<g>
</g>
<g>
</g>
<g>
</g>
<g>
</g>
<g>
</g>
<g>
</g>
<g>
</g>
<g>
</g>
<g>
</g>
<g>
</g>
</svg>
